info face="Stencil" size=32 bold=0 italic=0 charset="" unicode=1 stretchH=100 smooth=1 aa=2 padding=0,0,0,0 spacing=1,1 outline=0
common lineHeight=32 base=25 scaleW=256 scaleH=256 pages=1 packed=0 alphaChnl=1 redChnl=0 greenChnl=0 blueChnl=0
page id=0 file="stensil_0.png"
chars count=125
char id=32   x=153   y=21    width=2     height=1     xoffset=0     yoffset=31    xadvance=7     page=0  chnl=15
char id=33   x=249   y=60    width=6     height=19    xoffset=1     yoffset=6     xadvance=9     page=0  chnl=15
char id=34   x=211   y=120   width=10    height=8     xoffset=1     yoffset=6     xadvance=11    page=0  chnl=15
char id=35   x=209   y=40    width=17    height=19    xoffset=0     yoffset=6     xadvance=15    page=0  chnl=15
char id=36   x=136   y=0     width=13    height=22    xoffset=1     yoffset=5     xadvance=15    page=0  chnl=15
char id=37   x=0     y=24    width=20    height=19    xoffset=0     yoffset=6     xadvance=19    page=0  chnl=15
char id=38   x=154   y=43    width=18    height=19    xoffset=0     yoffset=6     xadvance=19    page=0  chnl=15
char id=39   x=250   y=100   width=5     height=8     xoffset=1     yoffset=6     xadvance=6     page=0  chnl=15
char id=40   x=99    y=0     width=8     height=23    xoffset=2     yoffset=6     xadvance=11    page=0  chnl=15
char id=41   x=108   y=0     width=8     height=23    xoffset=1     yoffset=6     xadvance=11    page=0  chnl=15
char id=42   x=151   y=124   width=11    height=10    xoffset=2     yoffset=6     xadvance=15    page=0  chnl=15
char id=43   x=44    y=124   width=15    height=13    xoffset=0     yoffset=9     xadvance=15    page=0  chnl=15
char id=44   x=163   y=124   width=6     height=10    xoffset=1     yoffset=19    xadvance=9     page=0  chnl=15
char id=45   x=28    y=141   width=8     height=3     xoffset=0     yoffset=14    xadvance=7     page=0  chnl=15
char id=46   x=222   y=119   width=6     height=6     xoffset=1     yoffset=19    xadvance=8     page=0  chnl=15
char id=47   x=39    y=0     width=12    height=23    xoffset=-2    yoffset=6     xadvance=9     page=0  chnl=15
char id=48   x=68    y=84    width=15    height=19    xoffset=0     yoffset=6     xadvance=15    page=0  chnl=15
char id=49   x=179   y=103   width=9     height=19    xoffset=3     yoffset=6     xadvance=15    page=0  chnl=15
char id=50   x=122   y=104   width=14    height=19    xoffset=1     yoffset=6     xadvance=15    page=0  chnl=15
char id=51   x=137   y=104   width=14    height=19    xoffset=1     yoffset=6     xadvance=15    page=0  chnl=15
char id=52   x=16    y=104   width=15    height=19    xoffset=0     yoffset=6     xadvance=15    page=0  chnl=15
char id=53   x=47    y=104   width=14    height=19    xoffset=1     yoffset=6     xadvance=15    page=0  chnl=15
char id=54   x=100   y=84    width=15    height=19    xoffset=0     yoffset=6     xadvance=15    page=0  chnl=15
char id=55   x=152   y=104   width=13    height=19    xoffset=1     yoffset=6     xadvance=15    page=0  chnl=15
char id=56   x=148   y=84    width=15    height=19    xoffset=0     yoffset=6     xadvance=15    page=0  chnl=15
char id=57   x=116   y=84    width=15    height=19    xoffset=0     yoffset=6     xadvance=15    page=0  chnl=15
char id=58   x=243   y=100   width=6     height=14    xoffset=1     yoffset=11    xadvance=8     page=0  chnl=15
char id=59   x=218   y=100   width=6     height=18    xoffset=1     yoffset=11    xadvance=9     page=0  chnl=15
char id=60   x=16    y=124   width=13    height=16    xoffset=0     yoffset=7     xadvance=11    page=0  chnl=15
char id=61   x=170   y=123   width=15    height=9     xoffset=0     yoffset=11    xadvance=15    page=0  chnl=15
char id=62   x=30    y=124   width=13    height=16    xoffset=0     yoffset=7     xadvance=11    page=0  chnl=15
char id=63   x=166   y=103   width=12    height=19    xoffset=1     yoffset=6     xadvance=14    page=0  chnl=15
char id=64   x=227   y=20    width=19    height=19    xoffset=0     yoffset=6     xadvance=19    page=0  chnl=15
char id=65   x=116   y=44    width=18    height=19    xoffset=0     yoffset=6     xadvance=16    page=0  chnl=15
char id=66   x=227   y=40    width=17    height=19    xoffset=0     yoffset=6     xadvance=18    page=0  chnl=15
char id=67   x=232   y=60    width=16    height=19    xoffset=0     yoffset=6     xadvance=16    page=0  chnl=15
char id=68   x=0     y=64    width=17    height=19    xoffset=0     yoffset=6     xadvance=17    page=0  chnl=15
char id=69   x=84    y=84    width=15    height=19    xoffset=0     yoffset=6     xadvance=16    page=0  chnl=15
char id=70   x=180   y=81    width=15    height=19    xoffset=0     yoffset=6     xadvance=15    page=0  chnl=15
char id=71   x=198   y=60    width=16    height=19    xoffset=0     yoffset=6     xadvance=16    page=0  chnl=15
char id=72   x=147   y=23    width=19    height=19    xoffset=1     yoffset=6     xadvance=20    page=0  chnl=15
char id=73   x=245   y=40    width=10    height=19    xoffset=0     yoffset=6     xadvance=10    page=0  chnl=15
char id=74   x=132   y=84    width=15    height=19    xoffset=0     yoffset=6     xadvance=14    page=0  chnl=15
char id=75   x=0     y=44    width=19    height=19    xoffset=1     yoffset=6     xadvance=20    page=0  chnl=15
char id=76   x=0     y=104   width=15    height=19    xoffset=0     yoffset=6     xadvance=14    page=0  chnl=15
char id=77   x=126   y=24    width=20    height=19    xoffset=0     yoffset=6     xadvance=21    page=0  chnl=15
char id=78   x=97    y=44    width=18    height=19    xoffset=0     yoffset=6     xadvance=18    page=0  chnl=15
char id=79   x=90    y=64    width=17    height=19    xoffset=0     yoffset=6     xadvance=17    page=0  chnl=15
char id=80   x=18    y=64    width=17    height=19    xoffset=0     yoffset=6     xadvance=17    page=0  chnl=15
char id=81   x=150   y=0     width=17    height=20    xoffset=0     yoffset=6     xadvance=17    page=0  chnl=15
char id=82   x=187   y=20    width=19    height=19    xoffset=0     yoffset=6     xadvance=19    page=0  chnl=15
char id=83   x=77    y=104   width=14    height=19    xoffset=0     yoffset=6     xadvance=15    page=0  chnl=15
char id=84   x=17    y=84    width=16    height=19    xoffset=0     yoffset=6     xadvance=16    page=0  chnl=15
char id=85   x=78    y=44    width=18    height=19    xoffset=0     yoffset=6     xadvance=18    page=0  chnl=15
char id=86   x=36    y=64    width=17    height=19    xoffset=0     yoffset=6     xadvance=16    page=0  chnl=15
char id=87   x=232   y=0     width=22    height=19    xoffset=0     yoffset=6     xadvance=22    page=0  chnl=15
char id=88   x=54    y=64    width=17    height=19    xoffset=0     yoffset=6     xadvance=16    page=0  chnl=15
char id=89   x=72    y=64    width=17    height=19    xoffset=0     yoffset=6     xadvance=16    page=0  chnl=15
char id=90   x=107   y=104   width=14    height=19    xoffset=0     yoffset=6     xadvance=14    page=0  chnl=15
char id=91   x=89    y=0     width=9     height=23    xoffset=1     yoffset=6     xadvance=10    page=0  chnl=15
char id=92   x=52    y=0     width=12    height=23    xoffset=0     yoffset=6     xadvance=9     page=0  chnl=15
char id=93   x=117   y=0     width=8     height=23    xoffset=1     yoffset=6     xadvance=10    page=0  chnl=15
char id=94   x=60    y=124   width=16    height=12    xoffset=0     yoffset=5     xadvance=15    page=0  chnl=15
char id=95   x=46    y=138   width=14    height=2     xoffset=0     yoffset=27    xadvance=13    page=0  chnl=15
char id=96   x=0     y=142   width=7     height=5     xoffset=2     yoffset=1     xadvance=13    page=0  chnl=15
char id=97   x=59    y=44    width=18    height=19    xoffset=0     yoffset=6     xadvance=16    page=0  chnl=15
char id=98   x=108   y=64    width=17    height=19    xoffset=0     yoffset=6     xadvance=18    page=0  chnl=15
char id=99   x=215   y=60    width=16    height=19    xoffset=0     yoffset=6     xadvance=16    page=0  chnl=15
char id=100  x=126   y=64    width=17    height=19    xoffset=0     yoffset=6     xadvance=17    page=0  chnl=15
char id=101  x=228   y=80    width=15    height=19    xoffset=0     yoffset=6     xadvance=16    page=0  chnl=15
char id=102  x=196   y=81    width=15    height=19    xoffset=0     yoffset=6     xadvance=15    page=0  chnl=15
char id=103  x=0     y=84    width=16    height=19    xoffset=0     yoffset=6     xadvance=16    page=0  chnl=15
char id=104  x=207   y=20    width=19    height=19    xoffset=1     yoffset=6     xadvance=20    page=0  chnl=15
char id=105  x=244   y=80    width=10    height=19    xoffset=0     yoffset=6     xadvance=10    page=0  chnl=15
char id=106  x=164   y=83    width=15    height=19    xoffset=0     yoffset=6     xadvance=14    page=0  chnl=15
char id=107  x=20    y=44    width=19    height=19    xoffset=1     yoffset=6     xadvance=20    page=0  chnl=15
char id=108  x=212   y=80    width=15    height=19    xoffset=0     yoffset=6     xadvance=14    page=0  chnl=15
char id=109  x=105   y=24    width=20    height=19    xoffset=0     yoffset=6     xadvance=21    page=0  chnl=15
char id=110  x=135   y=44    width=18    height=19    xoffset=0     yoffset=6     xadvance=18    page=0  chnl=15
char id=111  x=144   y=64    width=17    height=19    xoffset=0     yoffset=6     xadvance=17    page=0  chnl=15
char id=112  x=162   y=63    width=17    height=19    xoffset=0     yoffset=6     xadvance=17    page=0  chnl=15
char id=113  x=168   y=0     width=17    height=20    xoffset=0     yoffset=6     xadvance=17    page=0  chnl=15
char id=114  x=167   y=21    width=19    height=19    xoffset=0     yoffset=6     xadvance=19    page=0  chnl=15
char id=115  x=92    y=104   width=14    height=19    xoffset=0     yoffset=6     xadvance=15    page=0  chnl=15
char id=116  x=51    y=84    width=16    height=19    xoffset=0     yoffset=6     xadvance=16    page=0  chnl=15
char id=117  x=40    y=44    width=18    height=19    xoffset=0     yoffset=6     xadvance=18    page=0  chnl=15
char id=118  x=180   y=61    width=17    height=19    xoffset=0     yoffset=6     xadvance=16    page=0  chnl=15
char id=119  x=209   y=0     width=22    height=19    xoffset=0     yoffset=6     xadvance=22    page=0  chnl=15
char id=120  x=173   y=41    width=17    height=19    xoffset=0     yoffset=6     xadvance=16    page=0  chnl=15
char id=121  x=191   y=40    width=17    height=19    xoffset=0     yoffset=6     xadvance=16    page=0  chnl=15
char id=122  x=32    y=104   width=14    height=19    xoffset=0     yoffset=6     xadvance=14    page=0  chnl=15
char id=123  x=65    y=0     width=11    height=23    xoffset=0     yoffset=6     xadvance=11    page=0  chnl=15
char id=124  x=126   y=0     width=4     height=23    xoffset=0     yoffset=6     xadvance=3     page=0  chnl=15
char id=125  x=77    y=0     width=11    height=23    xoffset=0     yoffset=6     xadvance=11    page=0  chnl=15
char id=126  x=15    y=142   width=12    height=4     xoffset=0     yoffset=4     xadvance=10    page=0  chnl=15
char id=160  x=150   y=21    width=2     height=1     xoffset=0     yoffset=31    xadvance=7     page=0  chnl=15
char id=161  x=247   y=20    width=6     height=19    xoffset=1     yoffset=6     xadvance=9     page=0  chnl=15
char id=162  x=205   y=101   width=12    height=18    xoffset=2     yoffset=7     xadvance=15    page=0  chnl=15
char id=163  x=62    y=104   width=14    height=19    xoffset=1     yoffset=6     xadvance=15    page=0  chnl=15
char id=164  x=225   y=100   width=17    height=17    xoffset=0     yoffset=7     xadvance=18    page=0  chnl=15
char id=165  x=34    y=84    width=16    height=19    xoffset=0     yoffset=6     xadvance=15    page=0  chnl=15
char id=166  x=131   y=0     width=4     height=23    xoffset=0     yoffset=6     xadvance=3     page=0  chnl=15
char id=167  x=25    y=0     width=13    height=23    xoffset=0     yoffset=6     xadvance=13    page=0  chnl=15
char id=168  x=235   y=118   width=10    height=5     xoffset=2     yoffset=1     xadvance=13    page=0  chnl=15
char id=169  x=63    y=24    width=20    height=19    xoffset=0     yoffset=6     xadvance=19    page=0  chnl=15
char id=170  x=130   y=124   width=10    height=11    xoffset=1     yoffset=6     xadvance=10    page=0  chnl=15
char id=171  x=104   y=124   width=12    height=11    xoffset=1     yoffset=10    xadvance=14    page=0  chnl=15
char id=172  x=197   y=120   width=13    height=8     xoffset=0     yoffset=17    xadvance=12    page=0  chnl=15
char id=173  x=37    y=141   width=8     height=3     xoffset=0     yoffset=14    xadvance=7     page=0  chnl=15
char id=174  x=84    y=24    width=20    height=19    xoffset=0     yoffset=6     xadvance=19    page=0  chnl=15
char id=176  x=186   y=123   width=10    height=9     xoffset=2     yoffset=6     xadvance=13    page=0  chnl=15
char id=177  x=0     y=124   width=15    height=17    xoffset=0     yoffset=9     xadvance=15    page=0  chnl=15
char id=178  x=77    y=124   width=9     height=12    xoffset=0     yoffset=6     xadvance=10    page=0  chnl=15
char id=179  x=87    y=124   width=9     height=12    xoffset=0     yoffset=6     xadvance=10    page=0  chnl=15
char id=180  x=246   y=115   width=7     height=5     xoffset=4     yoffset=1     xadvance=13    page=0  chnl=15
char id=181  x=189   y=101   width=15    height=18    xoffset=0     yoffset=12    xadvance=14    page=0  chnl=15
char id=182  x=0     y=0     width=24    height=23    xoffset=0     yoffset=6     xadvance=23    page=0  chnl=15
char id=183  x=8     y=142   width=6     height=5     xoffset=1     yoffset=13    xadvance=8     page=0  chnl=15
char id=184  x=229   y=118   width=5     height=6     xoffset=4     yoffset=26    xadvance=13    page=0  chnl=15
char id=185  x=97    y=124   width=6     height=12    xoffset=2     yoffset=6     xadvance=10    page=0  chnl=15
char id=186  x=141   y=124   width=9     height=11    xoffset=0     yoffset=6     xadvance=10    page=0  chnl=15
char id=187  x=117   y=124   width=12    height=11    xoffset=1     yoffset=10    xadvance=14    page=0  chnl=15
char id=188  x=42    y=24    width=20    height=19    xoffset=2     yoffset=6     xadvance=22    page=0  chnl=15
char id=189  x=21    y=24    width=20    height=19    xoffset=2     yoffset=6     xadvance=22    page=0  chnl=15
char id=190  x=186   y=0     width=22    height=19    xoffset=0     yoffset=6     xadvance=22    page=0  chnl=15
